Introduction to gtexr
…
get_eqtl_genes("Whole_Blood")
#> Warning: ! Total number of items (12360) exceeds the selected maximum page size (250).
#> ✖ 12110 items were not retrieved.
#> ℹ To retrieve all available items, increase `itemsPerPage`, ensuring you reuse
#>   your original query parameters e.g.
#>   `get_eqtl_genes(<your_existing_parameters>, itemsPerPage = 100000)`
#> ℹ Alternatively, adjust global "gtexr.itemsPerPage" setting e.g.
#>   `options(list(gtexr.itemsPerPage = 100000))`
#> 
#> ── Paging info ─────────────────────────────────────────────────────────────────
#> • numberOfPages = 50
#> • page = 0
#> • maxItemsPerPage = 250
#> • totalNumberOfItems = 12360
#> # A tibble: 250 × 10
#>    tissueSiteDetailId ontologyId  datasetId empiricalPValue gencodeId geneSymbol
#>    <chr>              <chr>       <chr>               <dbl> <chr>     <chr>     
#>  1 Whole_Blood        UBERON:001… gtex_v8          1.05e- 9 ENSG0000… WASH7P    
#>  2 Whole_Blood        UBERON:001… gtex_v8          1.06e-25 ENSG0000… RP11-34P1…
#>  3 Whole_Blood        UBERON:001… gtex_v8          6.31e- 2 ENSG0000… CICP27    
#>  4 Whole_Blood        UBERON:001… gtex_v8          8.71e- 9 ENSG0000… RP11-34P1…
#>  5 Whole_Blood        UBERON:001… gtex_v8          6.01e-20 ENSG0000… RP11-34P1…
#>  6 Whole_Blood        UBERON:001… gtex_v8          6.96e- 9 ENSG0000… RP11-34P1…
#>  7 Whole_Blood        UBERON:001… gtex_v8          3.10e- 4 ENSG0000… RP11-34P1…
#>  8 Whole_Blood        UBERON:001… gtex_v8          1.92e- 3 ENSG0000… ABC7-4304…
#>  9 Whole_Blood        UBERON:001… gtex_v8          1.58e- 3 ENSG0000… RP11-34P1…
#> 10 Whole_Blood        UBERON:001… gtex_v8          7.82e- 2 ENSG0000… AP006222.2
#> # ℹ 240 more rows
#> # ℹ 4 more variables: log2AllelicFoldChange <dbl>, pValue <dbl>,
#> #   pValueThreshold <dbl>, qValue <dbl>

For most cases, the simplest solution is to increase the value of
itemsPerPage
e.g. get_eqtl_genes("Whole_Blood", itemsPerPage = 100000).
This limit can be set globally by setting the “gtexr.itemsPerPage”
option with options(list(gtexr.itemsPerPage = 100000)).

Alternatively, multiple pages can be retrieved sequentially e.g.

# to retrieve the first 3 pages, with default setting of 250 items per page
1:3 |>
  map(\(page) get_eqtl_genes("Whole_Blood", page = page, .verbose = FALSE) |>
        suppressWarnings()) |>
  bind_rows()
#> # A tibble: 750 × 10
#>    tissueSiteDetailId ontologyId  datasetId empiricalPValue gencodeId geneSymbol
#>    <chr>              <chr>       <chr>               <dbl> <chr>     <chr>     
#>  1 Whole_Blood        UBERON:001… gtex_v8          5.44e- 2 ENSG0000… ARID1A    
#>  2 Whole_Blood        UBERON:001… gtex_v8          2.60e-21 ENSG0000… PIGV      
#>  3 Whole_Blood        UBERON:001… gtex_v8          3.46e-17 ENSG0000… ZDHHC18   
#>  4 Whole_Blood        UBERON:001… gtex_v8          8.02e- 4 ENSG0000… GPN2      
#>  5 Whole_Blood        UBERON:001… gtex_v8          3.48e- 8 ENSG0000… TRNP1     
#>  6 Whole_Blood        UBERON:001… gtex_v8          2.15e- 3 ENSG0000… SLC9A1    
#>  7 Whole_Blood        UBERON:001… gtex_v8          1.09e- 7 ENSG0000… WDTC1     
#>  8 Whole_Blood        UBERON:001… gtex_v8          5.17e- 4 ENSG0000… RP11-4K3_…
#>  9 Whole_Blood        UBERON:001… gtex_v8          5.98e- 4 ENSG0000… TMEM222   
#> 10 Whole_Blood        UBERON:001… gtex_v8          7.62e- 6 ENSG0000… SYTL1     
#> # ℹ 740 more rows
#> # ℹ 4 more variables: log2AllelicFoldChange <dbl>, pValue <dbl>,
#> #   pValueThreshold <dbl>, qValue <dbl>
…
